simulation/qsim/uc.msim.vcd
$comment
	File created using the following command:
		vcd file uc.msim.vcd -direction
$end
$date
	Thu May 18 13:08:50 2017
$end
$version
	ModelSim Version 10.1d
$end
$timescale
	1ps
$end
$scope module StoreSize_vlg_vec_tst $end
$var reg 32 ! B [31:0] $end
$var reg 32 " Data [31:0] $end
$var reg 2 # SSControl [1:0] $end
$var wire 1 $ out [31] $end
$var wire 1 % out [30] $end
$var wire 1 & out [29] $end
$var wire 1 ' out [28] $end
$var wire 1 ( out [27] $end
$var wire 1 ) out [26] $end
$var wire 1 * out [25] $end
$var wire 1 + out [24] $end
$var wire 1 , out [23] $end
$var wire 1 - out [22] $end
$var wire 1 . out [21] $end
$var wire 1 / out [20] $end
$var wire 1 0 out [19] $end
$var wire 1 1 out [18] $end
$var wire 1 2 out [17] $end
$var wire 1 3 out [16] $end
$var wire 1 4 out [15] $end
$var wire 1 5 out [14] $end
$var wire 1 6 out [13] $end
$var wire 1 7 out [12] $end
$var wire 1 8 out [11] $end
$var wire 1 9 out [10] $end
$var wire 1 : out [9] $end
$var wire 1 ; out [8] $end
$var wire 1 < out [7] $end
$var wire 1 = out [6] $end
$var wire 1 > out [5] $end
$var wire 1 ? out [4] $end
$var wire 1 @ out [3] $end
$var wire 1 A out [2] $end
$var wire 1 B out [1] $end
$var wire 1 C out [0] $end
$var wire 1 D sampler $end
$scope module i1 $end
$var wire 1 E gnd $end
$var wire 1 F vcc $end
$var wire 1 G unknown $end
$var tri1 1 H devclrn $end
$var tri1 1 I devpor $end
$var tri1 1 J devoe $end
$var wire 1 K Mux24~0_combout $end
$var wire 1 L out[0]$latch~combout $end
$var wire 1 M out[1]$latch~combout $end
$var wire 1 N out[2]$latch~combout $end
$var wire 1 O out[3]$latch~combout $end
$var wire 1 P out[4]$latch~combout $end
$var wire 1 Q out[5]$latch~combout $end
$var wire 1 R out[6]$latch~combout $end
$var wire 1 S out[7]$latch~combout $end
$var wire 1 T Mux0~0_combout $end
$var wire 1 U out[8]$latch~combout $end
$var wire 1 V Mux1~0_combout $end
$var wire 1 W out[9]$latch~combout $end
$var wire 1 X Mux2~0_combout $end
$var wire 1 Y out[10]$latch~combout $end
$var wire 1 Z Mux3~0_combout $end
$var wire 1 [ out[11]$latch~combout $end
$var wire 1 \ Mux4~0_combout $end
$var wire 1 ] out[12]$latch~combout $end
$var wire 1 ^ Mux5~0_combout $end
$var wire 1 _ out[13]$latch~combout $end
$var wire 1 ` Mux6~0_combout $end
$var wire 1 a out[14]$latch~combout $end
$var wire 1 b Mux7~0_combout $end
$var wire 1 c out[15]$latch~combout $end
$var wire 1 d Mux8~0_combout $end
$var wire 1 e out[16]$latch~combout $end
$var wire 1 f Mux9~0_combout $end
$var wire 1 g out[17]$latch~combout $end
$var wire 1 h Mux10~0_combout $end
$var wire 1 i out[18]$latch~combout $end
$var wire 1 j Mux11~0_combout $end
$var wire 1 k out[19]$latch~combout $end
$var wire 1 l Mux12~0_combout $end
$var wire 1 m out[20]$latch~combout $end
$var wire 1 n Mux13~0_combout $end
$var wire 1 o out[21]$latch~combout $end
$var wire 1 p Mux14~0_combout $end
$var wire 1 q out[22]$latch~combout $end
$var wire 1 r Mux15~0_combout $end
$var wire 1 s out[23]$latch~combout $end
$var wire 1 t Mux16~0_combout $end
$var wire 1 u out[24]$latch~combout $end
$var wire 1 v Mux17~0_combout $end
$var wire 1 w out[25]$latch~combout $end
$var wire 1 x Mux18~0_combout $end
$var wire 1 y out[26]$latch~combout $end
$var wire 1 z Mux19~0_combout $end
$var wire 1 { out[27]$latch~combout $end
$var wire 1 | Mux20~0_combout $end
$var wire 1 } out[28]$latch~combout $end
$var wire 1 ~ Mux21~0_combout $end
$var wire 1 !! out[29]$latch~combout $end
$var wire 1 "! Mux22~0_combout $end
$var wire 1 #! out[30]$latch~combout $end
$var wire 1 $! Mux23~0_combout $end
$var wire 1 %! out[31]$latch~combout $end
$var wire 1 &! B~combout [31] $end
$var wire 1 '! B~combout [30] $end
$var wire 1 (! B~combout [29] $end
$var wire 1 )! B~combout [28] $end
$var wire 1 *! B~combout [27] $end
$var wire 1 +! B~combout [26] $end
$var wire 1 ,! B~combout [25] $end
$var wire 1 -! B~combout [24] $end
$var wire 1 .! B~combout [23] $end
$var wire 1 /! B~combout [22] $end
$var wire 1 0! B~combout [21] $end
$var wire 1 1! B~combout [20] $end
$var wire 1 2! B~combout [19] $end
$var wire 1 3! B~combout [18] $end
$var wire 1 4! B~combout [17] $end
$var wire 1 5! B~combout [16] $end
$var wire 1 6! B~combout [15] $end
$var wire 1 7! B~combout [14] $end
$var wire 1 8! B~combout [13] $end
$var wire 1 9! B~combout [12] $end
$var wire 1 :! B~combout [11] $end
$var wire 1 ;! B~combout [10] $end
$var wire 1 <! B~combout [9] $end
$var wire 1 =! B~combout [8] $end
$var wire 1 >! B~combout [7] $end
$var wire 1 ?! B~combout [6] $end
$var wire 1 @! B~combout [5] $end
$var wire 1 A! B~combout [4] $end
$var wire 1 B! B~combout [3] $end
$var wire 1 C! B~combout [2] $end
$var wire 1 D! B~combout [1] $end
$var wire 1 E! B~combout [0] $end
$var wire 1 F! Data~combout [31] $end
$var wire 1 G! Data~combout [30] $end
$var wire 1 H! Data~combout [29] $end
$var wire 1 I! Data~combout [28] $end
$var wire 1 J! Data~combout [27] $end
$var wire 1 K! Data~combout [26] $end
$var wire 1 L! Data~combout [25] $end
$var wire 1 M! Data~combout [24] $end
$var wire 1 N! Data~combout [23] $end
$var wire 1 O! Data~combout [22] $end
$var wire 1 P! Data~combout [21] $end
$var wire 1 Q! Data~combout [20] $end
$var wire 1 R! Data~combout [19] $end
$var wire 1 S! Data~combout [18] $end
$var wire 1 T! Data~combout [17] $end
$var wire 1 U! Data~combout [16] $end
$var wire 1 V! Data~combout [15] $end
$var wire 1 W! Data~combout [14] $end
$var wire 1 X! Data~combout [13] $end
$var wire 1 Y! Data~combout [12] $end
$var wire 1 Z! Data~combout [11] $end
$var wire 1 [! Data~combout [10] $end
$var wire 1 \! Data~combout [9] $end
$var wire 1 ]! Data~combout [8] $end
$var wire 1 ^! Data~combout [7] $end
$var wire 1 _! Data~combout [6] $end
$var wire 1 `! Data~combout [5] $end
$var wire 1 a! Data~combout [4] $end
$var wire 1 b! Data~combout [3] $end
$var wire 1 c! Data~combout [2] $end
$var wire 1 d! Data~combout [1] $end
$var wire 1 e! Data~combout [0] $end
$var wire 1 f! SSControl~combout [1] $end
$var wire 1 g! SSControl~combout [0] $end
$upscope $end
$upscope $end
$enddefinitions $end
#0
$dumpvars
b10001000000000000000010000000001 !
b1000001000000000000000000000010 "
b0 #
1C
0B
0A
0@
0?
0>
0=
0<
0;
0:
09
08
07
06
05
04
03
02
01
00
0/
0.
0-
0,
1+
0*
0)
0(
0'
0&
1%
0$
xD
0E
1F
xG
1H
1I
1J
0K
1L
0M
0N
0O
0P
0Q
0R
0S
0T
0U
0V
0W
0X
0Y
0Z
0[
0\
0]
0^
0_
0`
0a
0b
0c
0d
0e
0f
0g
0h
0i
0j
0k
0l
0m
0n
0o
0p
0q
0r
0s
1t
1u
0v
0w
0x
0y
0z
0{
0|
0}
0~
0!!
1"!
1#!
0$!
0%!
1E!
0D!
0C!
0B!
0A!
0@!
0?!
0>!
0=!
0<!
1;!
0:!
09!
08!
07!
06!
05!
04!
03!
02!
01!
00!
0/!
0.!
0-!
0,!
0+!
1*!
0)!
0(!
0'!
1&!
ze!
zd!
zc!
zb!
za!
z`!
z_!
z^!
0]!
0\!
0[!
0Z!
0Y!
0X!
0W!
0V!
0U!
0T!
0S!
0R!
0Q!
0P!
0O!
0N!
1M!
0L!
0K!
0J!
0I!
0H!
1G!
0F!
0g!
0f!
$end
#1000
b1 #
1g!
0D
1X
1Y
19
#2000
b11 #
b10 #
0g!
1f!
1D
1$!
0"!
1z
0t
1%!
0#!
1{
0u
1$
0%
1(
0+
#3000
b11 #
1g!
0D
1K
#4000
b1 #
b0 #
0g!
0f!
1D
0X
0K
0$!
1"!
0z
1t
0Y
0%!
1#!
0{
1u
09
0$
1%
0(
1+
#5000
b1 #
1g!
0D
1X
1Y
19
#6000
b11 #
b10 #
0g!
1f!
1D
1$!
0"!
1z
0t
1%!
0#!
1{
0u
1$
0%
1(
0+
#7000
b11 #
1g!
0D
1K
#8000
b1 #
b0 #
0g!
0f!
1D
0X
0K
0$!
1"!
0z
1t
0Y
0%!
1#!
0{
1u
09
0$
1%
0(
1+
#9000
b1 #
1g!
0D
1X
1Y
19
#10000
b11 #
b10 #
0g!
1f!
1D
1$!
0"!
1z
0t
1%!
0#!
1{
0u
1$
0%
1(
0+
#11000
b11 #
1g!
0D
1K
#12000
b1 #
b0 #
0g!
0f!
1D
0X
0K
0$!
1"!
0z
1t
0Y
0%!
1#!
0{
1u
09
0$
1%
0(
1+
#13000
b1 #
1g!
0D
1X
1Y
19
#14000
b11 #
b10 #
0g!
1f!
1D
1$!
0"!
1z
0t
1%!
0#!
1{
0u
1$
0%
1(
0+
#15000
b11 #
1g!
0D
1K
#16000
b1 #
b0 #
0g!
0f!
1D
0X
0K
0$!
1"!
0z
1t
0Y
0%!
1#!
0{
1u
09
0$
1%
0(
1+
#17000
b1 #
1g!
0D
1X
1Y
19
#18000
b11 #
b10 #
0g!
1f!
1D
1$!
0"!
1z
0t
1%!
0#!
1{
0u
1$
0%
1(
0+
#19000
b11 #
1g!
0D
1K
#20000
b1 #
b0 #
0g!
0f!
1D
0X
0K
0$!
1"!
0z
1t
0Y
0%!
1#!
0{
1u
09
0$
1%
0(
1+
#21000
b1 #
1g!
0D
1X
1Y
19
#22000
b11 #
b10 #
0g!
1f!
1D
1$!
0"!
1z
0t
1%!
0#!
1{
0u
1$
0%
1(
0+
#23000
b11 #
1g!
0D
1K
#24000
b1 #
b0 #
0g!
0f!
1D
0X
0K
0$!
1"!
0z
1t
0Y
0%!
1#!
0{
1u
09
0$
1%
0(
1+
#25000
b1 #
1g!
0D
1X
1Y
19
#26000
b11 #
b10 #
0g!
1f!
1D
1$!
0"!
1z
0t
1%!
0#!
1{
0u
1$
0%
1(
0+
#27000
b11 #
1g!
0D
1K
#28000
b1 #
b0 #
0g!
0f!
1D
0X
0K
0$!
1"!
0z
1t
0Y
0%!
1#!
0{
1u
09
0$
1%
0(
1+
#29000
b1 #
1g!
0D
1X
1Y
19
#30000
b11 #
b10 #
0g!
1f!
1D
1$!
0"!
1z
0t
1%!
0#!
1{
0u
1$
0%
1(
0+
#31000
b11 #
1g!
0D
1K
#32000
b1 #
b0 #
0g!
0f!
1D
0X
0K
0$!
1"!
0z
1t
0Y
0%!
1#!
0{
1u
09
0$
1%
0(
1+
#33000
b1 #
1g!
0D
1X
1Y
19
#34000
b11 #
b10 #
0g!
1f!
1D
1$!
0"!
1z
0t
1%!
0#!
1{
0u
1$
0%
1(
0+
#35000
b11 #
1g!
0D
1K
#36000
b1 #
b0 #
0g!
0f!
1D
0X
0K
0$!
1"!
0z
1t
0Y
0%!
1#!
0{
1u
09
0$
1%
0(
1+
#37000
b1 #
1g!
0D
1X
1Y
19
#38000
b11 #
b10 #
0g!
1f!
1D
1$!
0"!
1z
0t
1%!
0#!
1{
0u
1$
0%
1(
0+
#39000
b11 #
1g!
0D
1K
#40000
b1 #
b0 #
0g!
0f!
1D
0X
0K
0$!
1"!
0z
1t
0Y
0%!
1#!
0{
1u
09
0$
1%
0(
1+
#41000
b1 #
1g!
0D
1X
1Y
19
#42000
b11 #
b10 #
0g!
1f!
1D
1$!
0"!
1z
0t
1%!
0#!
1{
0u
1$
0%
1(
0+
#43000
b11 #
1g!
0D
1K
#44000
b1 #
b0 #
0g!
0f!
1D
0X
0K
0$!
1"!
0z
1t
0Y
0%!
1#!
0{
1u
09
0$
1%
0(
1+
#45000
b1 #
1g!
0D
1X
1Y
19
#46000
b11 #
b10 #
0g!
1f!
1D
1$!
0"!
1z
0t
1%!
0#!
1{
0u
1$
0%
1(
0+
#47000
b11 #
1g!
0D
1K
#48000
b1 #
b0 #
0g!
0f!
1D
0X
0K
0$!
1"!
0z
1t
0Y
0%!
1#!
0{
1u
09
0$
1%
0(
1+
#49000
b1 #
1g!
0D
1X
1Y
19
#50000
b11 #
b10 #
0g!
1f!
1D
1$!
0"!
1z
0t
1%!
0#!
1{
0u
1$
0%
1(
0+
#51000
b11 #
1g!
0D
1K
#52000
b1 #
b0 #
0g!
0f!
1D
0X
0K
0$!
1"!
0z
1t
0Y
0%!
1#!
0{
1u
09
0$
1%
0(
1+
#53000
b1 #
1g!
0D
1X
1Y
19
#54000
b11 #
b10 #
0g!
1f!
1D
1$!
0"!
1z
0t
1%!
0#!
1{
0u
1$
0%
1(
0+
#55000
b11 #
1g!
0D
1K
#56000
b1 #
b0 #
0g!
0f!
1D
0X
0K
0$!
1"!
0z
1t
0Y
0%!
1#!
0{
1u
09
0$
1%
0(
1+
#57000
b1 #
1g!
0D
1X
1Y
19
#58000
b11 #
b10 #
0g!
1f!
1D
1$!
0"!
1z
0t
1%!
0#!
1{
0u
1$
0%
1(
0+
#59000
b11 #
1g!
0D
1K
#60000
b1 #
b0 #
0g!
0f!
1D
0X
0K
0$!
1"!
0z
1t
0Y
0%!
1#!
0{
1u
09
0$
1%
0(
1+
#61000
b1 #
1g!
0D
1X
1Y
19
#62000
b11 #
b10 #
0g!
1f!
1D
1$!
0"!
1z
0t
1%!
0#!
1{
0u
1$
0%
1(
0+
#63000
b11 #
1g!
0D
1K
#64000
b1 #
b0 #
0g!
0f!
1D
0X
0K
0$!
1"!
0z
1t
0Y
0%!
1#!
0{
1u
09
0$
1%
0(
1+
#65000
b1 #
1g!
0D
1X
1Y
19
#66000
b11 #
b10 #
0g!
1f!
1D
1$!
0"!
1z
0t
1%!
0#!
1{
0u
1$
0%
1(
0+
#67000
b11 #
1g!
0D
1K
#68000
b1 #
b0 #
0g!
0f!
1D
0X
0K
0$!
1"!
0z
1t
0Y
0%!
1#!
0{
1u
09
0$
1%
0(
1+
#69000
b1 #
1g!
0D
1X
1Y
19
#70000
b11 #
b10 #
0g!
1f!
1D
1$!
0"!
1z
0t
1%!
0#!
1{
0u
1$
0%
1(
0+
#71000
b11 #
1g!
0D
1K
#72000
b1 #
b0 #
0g!
0f!
1D
0X
0K
0$!
1"!
0z
1t
0Y
0%!
1#!
0{
1u
09
0$
1%
0(
1+
#73000
b1 #
1g!
0D
1X
1Y
19
#74000
b11 #
b10 #
0g!
1f!
1D
1$!
0"!
1z
0t
1%!
0#!
1{
0u
1$
0%
1(
0+
#75000
b11 #
1g!
0D
1K
#76000
b1 #
b0 #
0g!
0f!
1D
0X
0K
0$!
1"!
0z
1t
0Y
0%!
1#!
0{
1u
09
0$
1%
0(
1+
#77000
b1 #
1g!
0D
1X
1Y
19
#78000
b11 #
b10 #
0g!
1f!
1D
1$!
0"!
1z
0t
1%!
0#!
1{
0u
1$
0%
1(
0+
#79000
b11 #
1g!
0D
1K
#80000
b1 #
b0 #
0g!
0f!
1D
0X
0K
0$!
1"!
0z
1t
0Y
0%!
1#!
0{
1u
09
0$
1%
0(
1+
#81000
b1 #
1g!
0D
1X
1Y
19
#82000
b11 #
b10 #
0g!
1f!
1D
1$!
0"!
1z
0t
1%!
0#!
1{
0u
1$
0%
1(
0+
#83000
b11 #
1g!
0D
1K
#84000
b1 #
b0 #
0g!
0f!
1D
0X
0K
0$!
1"!
0z
1t
0Y
0%!
1#!
0{
1u
09
0$
1%
0(
1+
#85000
b1 #
1g!
0D
1X
1Y
19
#86000
b11 #
b10 #
0g!
1f!
1D
1$!
0"!
1z
0t
1%!
0#!
1{
0u
1$
0%
1(
0+
#87000
b11 #
1g!
0D
1K
#88000
b1 #
b0 #
0g!
0f!
1D
0X
0K
0$!
1"!
0z
1t
0Y
0%!
1#!
0{
1u
09
0$
1%
0(
1+
#89000
b1 #
1g!
0D
1X
1Y
19
#90000
b11 #
b10 #
0g!
1f!
1D
1$!
0"!
1z
0t
1%!
0#!
1{
0u
1$
0%
1(
0+
#91000
b11 #
1g!
0D
1K
#92000
b1 #
b0 #
0g!
0f!
1D
0X
0K
0$!
1"!
0z
1t
0Y
0%!
1#!
0{
1u
09
0$
1%
0(
1+
#93000
b1 #
1g!
0D
1X
1Y
19
#94000
b11 #
b10 #
0g!
1f!
1D
1$!
0"!
1z
0t
1%!
0#!
1{
0u
1$
0%
1(
0+
#95000
b11 #
1g!
0D
1K
#96000
b1 #
b0 #
0g!
0f!
1D
0X
0K
0$!
1"!
0z
1t
0Y
0%!
1#!
0{
1u
09
0$
1%
0(
1+
#97000
b1 #
1g!
0D
1X
1Y
19
#98000
b11 #
b10 #
0g!
1f!
1D
1$!
0"!
1z
0t
1%!
0#!
1{
0u
1$
0%
1(
0+
#99000
b11 #
1g!
0D
1K
#100000
b1 #
b0 #
0g!
0f!
1D
0X
0K
0$!
1"!
0z
1t
0Y
0%!
1#!
0{
1u
09
0$
1%
0(
1+
#101000
b1 #
1g!
0D
1X
1Y
19
#102000
b11 #
b10 #
0g!
1f!
1D
1$!
0"!
1z
0t
1%!
0#!
1{
0u
1$
0%
1(
0+
#103000
b11 #
1g!
0D
1K
#104000
b1 #
b0 #
0g!
0f!
1D
0X
0K
0$!
1"!
0z
1t
0Y
0%!
1#!
0{
1u
09
0$
1%
0(
1+
#105000
b1 #
1g!
0D
1X
1Y
19
#106000
b11 #
b10 #
0g!
1f!
1D
1$!
0"!
1z
0t
1%!
0#!
1{
0u
1$
0%
1(
0+
#107000
b11 #
1g!
0D
1K
#108000
b1 #
b0 #
0g!
0f!
1D
0X
0K
0$!
1"!
0z
1t
0Y
0%!
1#!
0{
1u
09
0$
1%
0(
1+
#109000
b1 #
1g!
0D
1X
1Y
19
#110000
b11 #
b10 #
0g!
1f!
1D
1$!
0"!
1z
0t
1%!
0#!
1{
0u
1$
0%
1(
0+
#111000
b11 #
1g!
0D
1K
#112000
b1 #
b0 #
0g!
0f!
1D
0X
0K
0$!
1"!
0z
1t
0Y
0%!
1#!
0{
1u
09
0$
1%
0(
1+
#113000
b1 #
1g!
0D
1X
1Y
19
#114000
b11 #
b10 #
0g!
1f!
1D
1$!
0"!
1z
0t
1%!
0#!
1{
0u
1$
0%
1(
0+
#115000
b11 #
1g!
0D
1K
#116000
b1 #
b0 #
0g!
0f!
1D
0X
0K
0$!
1"!
0z
1t
0Y
0%!
1#!
0{
1u
09
0$
1%
0(
1+
#117000
b1 #
1g!
0D
1X
1Y
19
#118000
b11 #
b10 #
0g!
1f!
1D
1$!
0"!
1z
0t
1%!
0#!
1{
0u
1$
0%
1(
0+
#119000
b11 #
1g!
0D
1K
#120000
b1 #
b0 #
0g!
0f!
1D
0X
0K
0$!
1"!
0z
1t
0Y
0%!
1#!
0{
1u
09
0$
1%
0(
1+
#121000
b1 #
1g!
0D
1X
1Y
19
#122000
b11 #
b10 #
0g!
1f!
1D
1$!
0"!
1z
0t
1%!
0#!
1{
0u
1$
0%
1(
0+
#123000
b11 #
1g!
0D
1K
#124000
b1 #
b0 #
0g!
0f!
1D
0X
0K
0$!
1"!
0z
1t
0Y
0%!
1#!
0{
1u
09
0$
1%
0(
1+
#125000
b1 #
1g!
0D
1X
1Y
19
#126000
b11 #
b10 #
0g!
1f!
1D
1$!
0"!
1z
0t
1%!
0#!
1{
0u
1$
0%
1(
0+
#127000
b11 #
1g!
0D
1K
#128000
b1 #
b0 #
0g!
0f!
1D
0X
0K
0$!
1"!
0z
1t
0Y
0%!
1#!
0{
1u
09
0$
1%
0(
1+
#129000
b1 #
1g!
0D
1X
1Y
19
#130000
b11 #
b10 #
0g!
1f!
1D
1$!
0"!
1z
0t
1%!
0#!
1{
0u
1$
0%
1(
0+
#131000
b11 #
1g!
0D
1K
#132000
b1 #
b0 #
0g!
0f!
1D
0X
0K
0$!
1"!
0z
1t
0Y
0%!
1#!
0{
1u
09
0$
1%
0(
1+
#133000
b1 #
1g!
0D
1X
1Y
19
#134000
b11 #
b10 #
0g!
1f!
1D
1$!
0"!
1z
0t
1%!
0#!
1{
0u
1$
0%
1(
0+
#135000
b11 #
1g!
0D
1K
#136000
b1 #
b0 #
0g!
0f!
1D
0X
0K
0$!
1"!
0z
1t
0Y
0%!
1#!
0{
1u
09
0$
1%
0(
1+
#137000
b1 #
1g!
0D
1X
1Y
19
#138000
b11 #
b10 #
0g!
1f!
1D
1$!
0"!
1z
0t
1%!
0#!
1{
0u
1$
0%
1(
0+
#139000
b11 #
1g!
0D
1K
#140000
b1 #
b0 #
0g!
0f!
1D
0X
0K
0$!
1"!
0z
1t
0Y
0%!
1#!
0{
1u
09
0$
1%
0(
1+
#141000
b1 #
1g!
0D
1X
1Y
19
#142000
b11 #
b10 #
0g!
1f!
1D
1$!
0"!
1z
0t
1%!
0#!
1{
0u
1$
0%
1(
0+
#143000
b11 #
1g!
0D
1K
#144000
b1 #
b0 #
0g!
0f!
1D
0X
0K
0$!
1"!
0z
1t
0Y
0%!
1#!
0{
1u
09
0$
1%
0(
1+
#145000
b1 #
1g!
0D
1X
1Y
19
#146000
b11 #
b10 #
0g!
1f!
1D
1$!
0"!
1z
0t
1%!
0#!
1{
0u
1$
0%
1(
0+
#147000
b11 #
1g!
0D
1K
#148000
b1 #
b0 #
0g!
0f!
1D
0X
0K
0$!
1"!
0z
1t
0Y
0%!
1#!
0{
1u
09
0$
1%
0(
1+
#149000
b1 #
1g!
0D
1X
1Y
19
#150000
b11 #
b10 #
0g!
1f!
1D
1$!
0"!
1z
0t
1%!
0#!
1{
0u
1$
0%
1(
0+
#151000
b11 #
1g!
0D
1K
#152000
b1 #
b0 #
0g!
0f!
1D
0X
0K
0$!
1"!
0z
1t
0Y
0%!
1#!
0{
1u
09
0$
1%
0(
1+
#153000
b1 #
1g!
0D
1X
1Y
19
#154000
b11 #
b10 #
0g!
1f!
1D
1$!
0"!
1z
0t
1%!
0#!
1{
0u
1$
0%
1(
0+
#155000
b11 #
1g!
0D
1K
#156000
b1 #
b0 #
0g!
0f!
1D
0X
0K
0$!
1"!
0z
1t
0Y
0%!
1#!
0{
1u
09
0$
1%
0(
1+
#157000
b1 #
1g!
0D
1X
1Y
19
#158000
b11 #
b10 #
0g!
1f!
1D
1$!
0"!
1z
0t
1%!
0#!
1{
0u
1$
0%
1(
0+
#159000
b11 #
1g!
0D
1K
#160000
b1 #
b0 #
0g!
0f!
1D
0X
0K
0$!
1"!
0z
1t
0Y
0%!
1#!
0{
1u
09
0$
1%
0(
1+
#161000
b1 #
1g!
0D
1X
1Y
19
#162000
b11 #
b10 #
0g!
1f!
1D
1$!
0"!
1z
0t
1%!
0#!
1{
0u
1$
0%
1(
0+
#163000
b11 #
1g!
0D
1K
#164000
b1 #
b0 #
0g!
0f!
1D
0X
0K
0$!
1"!
0z
1t
0Y
0%!
1#!
0{
1u
09
0$
1%
0(
1+
#165000
b1 #
1g!
0D
1X
1Y
19
#166000
b11 #
b10 #
0g!
1f!
1D
1$!
0"!
1z
0t
1%!
0#!
1{
0u
1$
0%
1(
0+
#167000
b11 #
1g!
0D
1K
#168000
b1 #
b0 #
0g!
0f!
1D
0X
0K
0$!
1"!
0z
1t
0Y
0%!
1#!
0{
1u
09
0$
1%
0(
1+
#169000
b1 #
1g!
0D
1X
1Y
19
#170000
b11 #
b10 #
0g!
1f!
1D
1$!
0"!
1z
0t
1%!
0#!
1{
0u
1$
0%
1(
0+
#171000
b11 #
1g!
0D
1K
#172000
b1 #
b0 #
0g!
0f!
1D
0X
0K
0$!
1"!
0z
1t
0Y
0%!
1#!
0{
1u
09
0$
1%
0(
1+
#173000
b1 #
1g!
0D
1X
1Y
19
#174000
b11 #
b10 #
0g!
1f!
1D
1$!
0"!
1z
0t
1%!
0#!
1{
0u
1$
0%
1(
0+
#175000
b11 #
1g!
0D
1K
#176000
b1 #
b0 #
0g!
0f!
1D
0X
0K
0$!
1"!
0z
1t
0Y
0%!
1#!
0{
1u
09
0$
1%
0(
1+
#177000
b1 #
1g!
0D
1X
1Y
19
#178000
b11 #
b10 #
0g!
1f!
1D
1$!
0"!
1z
0t
1%!
0#!
1{
0u
1$
0%
1(
0+
#179000
b11 #
1g!
0D
1K
#180000
b1 #
b0 #
0g!
0f!
1D
0X
0K
0$!
1"!
0z
1t
0Y
0%!
1#!
0{
1u
09
0$
1%
0(
1+
#181000
b1 #
1g!
0D
1X
1Y
19
#182000
b11 #
b10 #
0g!
1f!
1D
1$!
0"!
1z
0t
1%!
0#!
1{
0u
1$
0%
1(
0+
#183000
b11 #
1g!
0D
1K
#184000
b1 #
b0 #
0g!
0f!
1D
0X
0K
0$!
1"!
0z
1t
0Y
0%!
1#!
0{
1u
09
0$
1%
0(
1+
#185000
b1 #
1g!
0D
1X
1Y
19
#186000
b11 #
b10 #
0g!
1f!
1D
1$!
0"!
1z
0t
1%!
0#!
1{
0u
1$
0%
1(
0+
#187000
b11 #
1g!
0D
1K
#188000
b1 #
b0 #
0g!
0f!
1D
0X
0K
0$!
1"!
0z
1t
0Y
0%!
1#!
0{
1u
09
0$
1%
0(
1+
#189000
b1 #
1g!
0D
1X
1Y
19
#190000
b11 #
b10 #
0g!
1f!
1D
1$!
0"!
1z
0t
1%!
0#!
1{
0u
1$
0%
1(
0+
#191000
b11 #
1g!
0D
1K
#192000
b1 #
b0 #
0g!
0f!
1D
0X
0K
0$!
1"!
0z
1t
0Y
0%!
1#!
0{
1u
09
0$
1%
0(
1+
#193000
b1 #
1g!
0D
1X
1Y
19
#194000
b11 #
b10 #
0g!
1f!
1D
1$!
0"!
1z
0t
1%!
0#!
1{
0u
1$
0%
1(
0+
#195000
b11 #
1g!
0D
1K
#196000
b1 #
b0 #
0g!
0f!
1D
0X
0K
0$!
1"!
0z
1t
0Y
0%!
1#!
0{
1u
09
0$
1%
0(
1+
#197000
b1 #
1g!
0D
1X
1Y
19
#198000
b11 #
b10 #
0g!
1f!
1D
1$!
0"!
1z
0t
1%!
0#!
1{
0u
1$
0%
1(
0+
#199000
b11 #
1g!
0D
1K
#200000
b1 #
b0 #
0g!
0f!
1D
0X
0K
0$!
1"!
0z
1t
0Y
0%!
1#!
0{
1u
09
0$
1%
0(
1+
#201000
b1 #
1g!
0D
1X
1Y
19
#202000
b11 #
b10 #
0g!
1f!
1D
1$!
0"!
1z
0t
1%!
0#!
1{
0u
1$
0%
1(
0+
#203000
b11 #
1g!
0D
1K
#204000
b1 #
b0 #
0g!
0f!
1D
0X
0K
0$!
1"!
0z
1t
0Y
0%!
1#!
0{
1u
09
0$
1%
0(
1+
#205000
b1 #
1g!
0D
1X
1Y
19
#206000
b11 #
b10 #
0g!
1f!
1D
1$!
0"!
1z
0t
1%!
0#!
1{
0u
1$
0%
1(
0+
#207000
b11 #
1g!
0D
1K
#208000
b1 #
b0 #
0g!
0f!
1D
0X
0K
0$!
1"!
0z
1t
0Y
0%!
1#!
0{
1u
09
0$
1%
0(
1+
#209000
b1 #
1g!
0D
1X
1Y
19
#210000
b11 #
b10 #
0g!
1f!
1D
1$!
0"!
1z
0t
1%!
0#!
1{
0u
1$
0%
1(
0+
#211000
b11 #
1g!
0D
1K
#212000
b1 #
b0 #
0g!
0f!
1D
0X
0K
0$!
1"!
0z
1t
0Y
0%!
1#!
0{
1u
09
0$
1%
0(
1+
#213000
b1 #
1g!
0D
1X
1Y
19
#214000
b11 #
b10 #
0g!
1f!
1D
1$!
0"!
1z
0t
1%!
0#!
1{
0u
1$
0%
1(
0+
#215000
b11 #
1g!
0D
1K
#216000
b1 #
b0 #
0g!
0f!
1D
0X
0K
0$!
1"!
0z
1t
0Y
0%!
1#!
0{
1u
09
0$
1%
0(
1+
#217000
b1 #
1g!
0D
1X
1Y
19
#218000
b11 #
b10 #
0g!
1f!
1D
1$!
0"!
1z
0t
1%!
0#!
1{
0u
1$
0%
1(
0+
#219000
b11 #
1g!
0D
1K
#220000
b1 #
b0 #
0g!
0f!
1D
0X
0K
0$!
1"!
0z
1t
0Y
0%!
1#!
0{
1u
09
0$
1%
0(
1+
#221000
b1 #
1g!
0D
1X
1Y
19
#222000
b11 #
b10 #
0g!
1f!
1D
1$!
0"!
1z
0t
1%!
0#!
1{
0u
1$
0%
1(
0+
#223000
b11 #
1g!
0D
1K
#224000
b1 #
b0 #
0g!
0f!
1D
0X
0K
0$!
1"!
0z
1t
0Y
0%!
1#!
0{
1u
09
0$
1%
0(
1+
#225000
b1 #
1g!
0D
1X
1Y
19
#226000
b11 #
b10 #
0g!
1f!
1D
1$!
0"!
1z
0t
1%!
0#!
1{
0u
1$
0%
1(
0+
#227000
b11 #
1g!
0D
1K
#228000
b1 #
b0 #
0g!
0f!
1D
0X
0K
0$!
1"!
0z
1t
0Y
0%!
1#!
0{
1u
09
0$
1%
0(
1+
#229000
b1 #
1g!
0D
1X
1Y
19
#230000
b11 #
b10 #
0g!
1f!
1D
1$!
0"!
1z
0t
1%!
0#!
1{
0u
1$
0%
1(
0+
#231000
b11 #
1g!
0D
1K
#232000
b1 #
b0 #
0g!
0f!
1D
0X
0K
0$!
1"!
0z
1t
0Y
0%!
1#!
0{
1u
09
0$
1%
0(
1+
#233000
b1 #
1g!
0D
1X
1Y
19
#234000
b11 #
b10 #
0g!
1f!
1D
1$!
0"!
1z
0t
1%!
0#!
1{
0u
1$
0%
1(
0+
#235000
b11 #
1g!
0D
1K
#236000
b1 #
b0 #
0g!
0f!
1D
0X
0K
0$!
1"!
0z
1t
0Y
0%!
1#!
0{
1u
09
0$
1%
0(
1+
#237000
b1 #
1g!
0D
1X
1Y
19
#238000
b11 #
b10 #
0g!
1f!
1D
1$!
0"!
1z
0t
1%!
0#!
1{
0u
1$
0%
1(
0+
#239000
b11 #
1g!
0D
1K
