simulation/qsim/uc.msim.vcd
$comment
	File created using the following command:
		vcd file uc.msim.vcd -direction
$end
$date
	Thu May 18 12:50:14 2017
$end
$version
	ModelSim Version 10.1d
$end
$timescale
	1ps
$end
$scope module Div_vlg_vec_tst $end
$var reg 32 ! A [31:0] $end
$var reg 32 " B [31:0] $end
$var reg 1 # clk $end
$var reg 1 $ reset $end
$var reg 1 % start $end
$var wire 1 & HI [31] $end
$var wire 1 ' HI [30] $end
$var wire 1 ( HI [29] $end
$var wire 1 ) HI [28] $end
$var wire 1 * HI [27] $end
$var wire 1 + HI [26] $end
$var wire 1 , HI [25] $end
$var wire 1 - HI [24] $end
$var wire 1 . HI [23] $end
$var wire 1 / HI [22] $end
$var wire 1 0 HI [21] $end
$var wire 1 1 HI [20] $end
$var wire 1 2 HI [19] $end
$var wire 1 3 HI [18] $end
$var wire 1 4 HI [17] $end
$var wire 1 5 HI [16] $end
$var wire 1 6 HI [15] $end
$var wire 1 7 HI [14] $end
$var wire 1 8 HI [13] $end
$var wire 1 9 HI [12] $end
$var wire 1 : HI [11] $end
$var wire 1 ; HI [10] $end
$var wire 1 < HI [9] $end
$var wire 1 = HI [8] $end
$var wire 1 > HI [7] $end
$var wire 1 ? HI [6] $end
$var wire 1 @ HI [5] $end
$var wire 1 A HI [4] $end
$var wire 1 B HI [3] $end
$var wire 1 C HI [2] $end
$var wire 1 D HI [1] $end
$var wire 1 E HI [0] $end
$var wire 1 F LO [31] $end
$var wire 1 G LO [30] $end
$var wire 1 H LO [29] $end
$var wire 1 I LO [28] $end
$var wire 1 J LO [27] $end
$var wire 1 K LO [26] $end
$var wire 1 L LO [25] $end
$var wire 1 M LO [24] $end
$var wire 1 N LO [23] $end
$var wire 1 O LO [22] $end
$var wire 1 P LO [21] $end
$var wire 1 Q LO [20] $end
$var wire 1 R LO [19] $end
$var wire 1 S LO [18] $end
$var wire 1 T LO [17] $end
$var wire 1 U LO [16] $end
$var wire 1 V LO [15] $end
$var wire 1 W LO [14] $end
$var wire 1 X LO [13] $end
$var wire 1 Y LO [12] $end
$var wire 1 Z LO [11] $end
$var wire 1 [ LO [10] $end
$var wire 1 \ LO [9] $end
$var wire 1 ] LO [8] $end
$var wire 1 ^ LO [7] $end
$var wire 1 _ LO [6] $end
$var wire 1 ` LO [5] $end
$var wire 1 a LO [4] $end
$var wire 1 b LO [3] $end
$var wire 1 c LO [2] $end
$var wire 1 d LO [1] $end
$var wire 1 e LO [0] $end
$var wire 1 f counter [5] $end
$var wire 1 g counter [4] $end
$var wire 1 h counter [3] $end
$var wire 1 i counter [2] $end
$var wire 1 j counter [1] $end
$var wire 1 k counter [0] $end
$var wire 1 l div0 $end
$var wire 1 m sampler $end
$scope module i1 $end
$var wire 1 n gnd $end
$var wire 1 o vcc $end
$var wire 1 p unknown $end
$var tri1 1 q devclrn $end
$var tri1 1 r devpor $end
$var tri1 1 s devoe $end
$var wire 1 t Add0~161 $end
$var wire 1 u clk~combout $end
$var wire 1 v Selector1~0_combout $end
$var wire 1 w Add2~0_combout $end
$var wire 1 x reset~combout $end
$var wire 1 y counter[0]~reg0_regout $end
$var wire 1 z Add2~2 $end
$var wire 1 { Add2~2COUT1_36 $end
$var wire 1 | Add2~5_combout $end
$var wire 1 } counter[1]~reg0_regout $end
$var wire 1 ~ Add2~7 $end
$var wire 1 !! Add2~7COUT1_38 $end
$var wire 1 "! Add2~10_combout $end
$var wire 1 #! counter[2]~reg0_regout $end
$var wire 1 $! Add2~12 $end
$var wire 1 %! Add2~12COUT1_40 $end
$var wire 1 &! Add2~15_combout $end
$var wire 1 '! counter[3]~reg0_regout $end
$var wire 1 (! Add2~17 $end
$var wire 1 )! Add2~20_combout $end
$var wire 1 *! counter[4]~reg0_regout $end
$var wire 1 +! Add2~22 $end
$var wire 1 ,! Add2~22COUT1_42 $end
$var wire 1 -! Add2~25_combout $end
$var wire 1 .! counter[5]~reg0_regout $end
$var wire 1 /! state.DONE~regout $end
$var wire 1 0! start~combout $end
$var wire 1 1! st~0_combout $end
$var wire 1 2! st~1_combout $end
$var wire 1 3! st~regout $end
$var wire 1 4! state.INITIAL~regout $end
$var wire 1 5! state.START~regout $end
$var wire 1 6! a[1]~0_combout $end
$var wire 1 7! Add0~196_combout $end
$var wire 1 8! Add0~194_combout $end
$var wire 1 9! Add0~189_combout $end
$var wire 1 :! Add0~184_combout $end
$var wire 1 ;! Add0~179_combout $end
$var wire 1 <! Add0~174_combout $end
$var wire 1 =! Add0~169_combout $end
$var wire 1 >! Add0~163_cout $end
$var wire 1 ?! Add0~168_combout $end
$var wire 1 @! Add0~167_combout $end
$var wire 1 A! Add0~166_combout $end
$var wire 1 B! Add0~160_combout $end
$var wire 1 C! Add0~0_combout $end
$var wire 1 D! Add0~2 $end
$var wire 1 E! Add0~2COUT1_224 $end
$var wire 1 F! Add0~5_combout $end
$var wire 1 G! Add0~7 $end
$var wire 1 H! Add0~7COUT1_226 $end
$var wire 1 I! Add0~10_combout $end
$var wire 1 J! Add0~12 $end
$var wire 1 K! Add0~12COUT1_228 $end
$var wire 1 L! Add0~15_combout $end
$var wire 1 M! Add0~17 $end
$var wire 1 N! Add0~17COUT1_230 $end
$var wire 1 O! Add0~20_combout $end
$var wire 1 P! Add0~22 $end
$var wire 1 Q! Add0~173_combout $end
$var wire 1 R! Add0~172_combout $end
$var wire 1 S! Add0~171_combout $end
$var wire 1 T! Add0~170_combout $end
$var wire 1 U! Add0~25_combout $end
$var wire 1 V! Add0~27 $end
$var wire 1 W! Add0~27COUT1_232 $end
$var wire 1 X! Add0~30_combout $end
$var wire 1 Y! Add0~32 $end
$var wire 1 Z! Add0~32COUT1_234 $end
$var wire 1 [! Add0~35_combout $end
$var wire 1 \! Add0~37 $end
$var wire 1 ]! Add0~37COUT1_236 $end
$var wire 1 ^! Add0~40_combout $end
$var wire 1 _! Add0~42 $end
$var wire 1 `! Add0~42COUT1_238 $end
$var wire 1 a! Add0~45_combout $end
$var wire 1 b! Add0~47 $end
$var wire 1 c! Add0~178_combout $end
$var wire 1 d! Add0~177_combout $end
$var wire 1 e! Add0~176_combout $end
$var wire 1 f! Add0~175_combout $end
$var wire 1 g! Add0~50_combout $end
$var wire 1 h! Add0~52 $end
$var wire 1 i! Add0~52COUT1_240 $end
$var wire 1 j! Add0~55_combout $end
$var wire 1 k! Add0~57 $end
$var wire 1 l! Add0~57COUT1_242 $end
$var wire 1 m! Add0~60_combout $end
$var wire 1 n! Add0~62 $end
$var wire 1 o! Add0~62COUT1_244 $end
$var wire 1 p! Add0~65_combout $end
$var wire 1 q! Add0~67 $end
$var wire 1 r! Add0~67COUT1_246 $end
$var wire 1 s! Add0~70_combout $end
$var wire 1 t! Add0~72 $end
$var wire 1 u! Add0~183_combout $end
$var wire 1 v! Add0~182_combout $end
$var wire 1 w! Add0~181_combout $end
$var wire 1 x! Add0~180_combout $end
$var wire 1 y! Add0~75_combout $end
$var wire 1 z! Add0~77 $end
$var wire 1 {! Add0~77COUT1_248 $end
$var wire 1 |! Add0~80_combout $end
$var wire 1 }! Add0~82 $end
$var wire 1 ~! Add0~82COUT1_250 $end
$var wire 1 !" Add0~85_combout $end
$var wire 1 "" Add0~87 $end
$var wire 1 #" Add0~87COUT1_252 $end
$var wire 1 $" Add0~90_combout $end
$var wire 1 %" Add0~92 $end
$var wire 1 &" Add0~92COUT1_254 $end
$var wire 1 '" Add0~95_combout $end
$var wire 1 (" Add0~97 $end
$var wire 1 )" Add0~188_combout $end
$var wire 1 *" Add0~187_combout $end
$var wire 1 +" Add0~186_combout $end
$var wire 1 ," Add0~185_combout $end
$var wire 1 -" Add0~100_combout $end
$var wire 1 ." Add0~102 $end
$var wire 1 /" Add0~102COUT1_256 $end
$var wire 1 0" Add0~105_combout $end
$var wire 1 1" Add0~107 $end
$var wire 1 2" Add0~107COUT1_258 $end
$var wire 1 3" Add0~110_combout $end
$var wire 1 4" Add0~112 $end
$var wire 1 5" Add0~112COUT1_260 $end
$var wire 1 6" Add0~115_combout $end
$var wire 1 7" Add0~117 $end
$var wire 1 8" Add0~117COUT1_262 $end
$var wire 1 9" Add0~120_combout $end
$var wire 1 :" Add0~122 $end
$var wire 1 ;" Add0~193_combout $end
$var wire 1 <" Add0~192_combout $end
$var wire 1 =" Add0~191_combout $end
$var wire 1 >" Add0~190_combout $end
$var wire 1 ?" Add0~125_combout $end
$var wire 1 @" Add0~127 $end
$var wire 1 A" Add0~127COUT1_264 $end
$var wire 1 B" Add0~130_combout $end
$var wire 1 C" Add0~132 $end
$var wire 1 D" Add0~132COUT1_266 $end
$var wire 1 E" Add0~135_combout $end
$var wire 1 F" Add0~137 $end
$var wire 1 G" Add0~137COUT1_268 $end
$var wire 1 H" Add0~140_combout $end
$var wire 1 I" Add0~142 $end
$var wire 1 J" Add0~142COUT1_270 $end
$var wire 1 K" Add0~145_combout $end
$var wire 1 L" Add0~147 $end
$var wire 1 M" Add0~195_combout $end
$var wire 1 N" Add0~150_combout $end
$var wire 1 O" Add0~152 $end
$var wire 1 P" Add0~152COUT1_272 $end
$var wire 1 Q" Add0~155_combout $end
$var wire 1 R" LO[0]~0_combout $end
$var wire 1 S" LO[0]~reg0_regout $end
$var wire 1 T" LO[1]~reg0_regout $end
$var wire 1 U" LO[2]~reg0_regout $end
$var wire 1 V" LO[3]~reg0_regout $end
$var wire 1 W" LO[4]~reg0_regout $end
$var wire 1 X" LO[5]~reg0_regout $end
$var wire 1 Y" LO[6]~reg0_regout $end
$var wire 1 Z" LO[7]~reg0_regout $end
$var wire 1 [" LO[8]~reg0_regout $end
$var wire 1 \" LO[9]~reg0_regout $end
$var wire 1 ]" LO[10]~reg0_regout $end
$var wire 1 ^" LO[11]~reg0_regout $end
$var wire 1 _" LO[12]~reg0_regout $end
$var wire 1 `" LO[13]~reg0_regout $end
$var wire 1 a" LO[14]~reg0_regout $end
$var wire 1 b" LO[15]~reg0_regout $end
$var wire 1 c" LO[16]~reg0_regout $end
$var wire 1 d" LO[17]~reg0_regout $end
$var wire 1 e" LO[18]~reg0_regout $end
$var wire 1 f" LO[19]~reg0_regout $end
$var wire 1 g" LO[20]~reg0_regout $end
$var wire 1 h" LO[21]~reg0_regout $end
$var wire 1 i" LO[22]~reg0_regout $end
$var wire 1 j" LO[23]~reg0_regout $end
$var wire 1 k" LO[24]~reg0_regout $end
$var wire 1 l" LO[25]~reg0_regout $end
$var wire 1 m" LO[26]~reg0_regout $end
$var wire 1 n" LO[27]~reg0_regout $end
$var wire 1 o" LO[28]~reg0_regout $end
$var wire 1 p" LO[29]~reg0_regout $end
$var wire 1 q" LO[30]~reg0_regout $end
$var wire 1 r" LO[31]~reg0_regout $end
$var wire 1 s" HI[0]~reg0_regout $end
$var wire 1 t" HI[1]~reg0_regout $end
$var wire 1 u" HI[2]~reg0_regout $end
$var wire 1 v" HI[3]~reg0_regout $end
$var wire 1 w" HI[4]~reg0_regout $end
$var wire 1 x" HI[5]~reg0_regout $end
$var wire 1 y" HI[6]~reg0_regout $end
$var wire 1 z" HI[7]~reg0_regout $end
$var wire 1 {" HI[8]~reg0_regout $end
$var wire 1 |" HI[9]~reg0_regout $end
$var wire 1 }" HI[10]~reg0_regout $end
$var wire 1 ~" HI[11]~reg0_regout $end
$var wire 1 !# HI[12]~reg0_regout $end
$var wire 1 "# HI[13]~reg0_regout $end
$var wire 1 ## HI[14]~reg0_regout $end
$var wire 1 $# HI[15]~reg0_regout $end
$var wire 1 %# HI[16]~reg0_regout $end
$var wire 1 &# HI[17]~reg0_regout $end
$var wire 1 '# HI[18]~reg0_regout $end
$var wire 1 (# HI[19]~reg0_regout $end
$var wire 1 )# HI[20]~reg0_regout $end
$var wire 1 *# HI[21]~reg0_regout $end
$var wire 1 +# HI[22]~reg0_regout $end
$var wire 1 ,# HI[23]~reg0_regout $end
$var wire 1 -# HI[24]~reg0_regout $end
$var wire 1 .# HI[25]~reg0_regout $end
$var wire 1 /# HI[26]~reg0_regout $end
$var wire 1 0# HI[27]~reg0_regout $end
$var wire 1 1# HI[28]~reg0_regout $end
$var wire 1 2# HI[29]~reg0_regout $end
$var wire 1 3# HI[30]~reg0_regout $end
$var wire 1 4# HI[31]~reg0_regout $end
$var wire 1 5# A~combout [31] $end
$var wire 1 6# A~combout [30] $end
$var wire 1 7# A~combout [29] $end
$var wire 1 8# A~combout [28] $end
$var wire 1 9# A~combout [27] $end
$var wire 1 :# A~combout [26] $end
$var wire 1 ;# A~combout [25] $end
$var wire 1 <# A~combout [24] $end
$var wire 1 =# A~combout [23] $end
$var wire 1 ># A~combout [22] $end
$var wire 1 ?# A~combout [21] $end
$var wire 1 @# A~combout [20] $end
$var wire 1 A# A~combout [19] $end
$var wire 1 B# A~combout [18] $end
$var wire 1 C# A~combout [17] $end
$var wire 1 D# A~combout [16] $end
$var wire 1 E# A~combout [15] $end
$var wire 1 F# A~combout [14] $end
$var wire 1 G# A~combout [13] $end
$var wire 1 H# A~combout [12] $end
$var wire 1 I# A~combout [11] $end
$var wire 1 J# A~combout [10] $end
$var wire 1 K# A~combout [9] $end
$var wire 1 L# A~combout [8] $end
$var wire 1 M# A~combout [7] $end
$var wire 1 N# A~combout [6] $end
$var wire 1 O# A~combout [5] $end
$var wire 1 P# A~combout [4] $end
$var wire 1 Q# A~combout [3] $end
$var wire 1 R# A~combout [2] $end
$var wire 1 S# A~combout [1] $end
$var wire 1 T# A~combout [0] $end
$var wire 1 U# B~combout [31] $end
$var wire 1 V# B~combout [30] $end
$var wire 1 W# B~combout [29] $end
$var wire 1 X# B~combout [28] $end
$var wire 1 Y# B~combout [27] $end
$var wire 1 Z# B~combout [26] $end
$var wire 1 [# B~combout [25] $end
$var wire 1 \# B~combout [24] $end
$var wire 1 ]# B~combout [23] $end
$var wire 1 ^# B~combout [22] $end
$var wire 1 _# B~combout [21] $end
$var wire 1 `# B~combout [20] $end
$var wire 1 a# B~combout [19] $end
$var wire 1 b# B~combout [18] $end
$var wire 1 c# B~combout [17] $end
$var wire 1 d# B~combout [16] $end
$var wire 1 e# B~combout [15] $end
$var wire 1 f# B~combout [14] $end
$var wire 1 g# B~combout [13] $end
$var wire 1 h# B~combout [12] $end
$var wire 1 i# B~combout [11] $end
$var wire 1 j# B~combout [10] $end
$var wire 1 k# B~combout [9] $end
$var wire 1 l# B~combout [8] $end
$var wire 1 m# B~combout [7] $end
$var wire 1 n# B~combout [6] $end
$var wire 1 o# B~combout [5] $end
$var wire 1 p# B~combout [4] $end
$var wire 1 q# B~combout [3] $end
$var wire 1 r# B~combout [2] $end
$var wire 1 s# B~combout [1] $end
$var wire 1 t# B~combout [0] $end
$var wire 1 u# p1 [31] $end
$var wire 1 v# p1 [30] $end
$var wire 1 w# p1 [29] $end
$var wire 1 x# p1 [28] $end
$var wire 1 y# p1 [27] $end
$var wire 1 z# p1 [26] $end
$var wire 1 {# p1 [25] $end
$var wire 1 |# p1 [24] $end
$var wire 1 }# p1 [23] $end
$var wire 1 ~# p1 [22] $end
$var wire 1 !$ p1 [21] $end
$var wire 1 "$ p1 [20] $end
$var wire 1 #$ p1 [19] $end
$var wire 1 $$ p1 [18] $end
$var wire 1 %$ p1 [17] $end
$var wire 1 &$ p1 [16] $end
$var wire 1 '$ p1 [15] $end
$var wire 1 ($ p1 [14] $end
$var wire 1 )$ p1 [13] $end
$var wire 1 *$ p1 [12] $end
$var wire 1 +$ p1 [11] $end
$var wire 1 ,$ p1 [10] $end
$var wire 1 -$ p1 [9] $end
$var wire 1 .$ p1 [8] $end
$var wire 1 /$ p1 [7] $end
$var wire 1 0$ p1 [6] $end
$var wire 1 1$ p1 [5] $end
$var wire 1 2$ p1 [4] $end
$var wire 1 3$ p1 [3] $end
$var wire 1 4$ p1 [2] $end
$var wire 1 5$ p1 [1] $end
$var wire 1 6$ p1 [0] $end
$var wire 1 7$ a [31] $end
$var wire 1 8$ a [30] $end
$var wire 1 9$ a [29] $end
$var wire 1 :$ a [28] $end
$var wire 1 ;$ a [27] $end
$var wire 1 <$ a [26] $end
$var wire 1 =$ a [25] $end
$var wire 1 >$ a [24] $end
$var wire 1 ?$ a [23] $end
$var wire 1 @$ a [22] $end
$var wire 1 A$ a [21] $end
$var wire 1 B$ a [20] $end
$var wire 1 C$ a [19] $end
$var wire 1 D$ a [18] $end
$var wire 1 E$ a [17] $end
$var wire 1 F$ a [16] $end
$var wire 1 G$ a [15] $end
$var wire 1 H$ a [14] $end
$var wire 1 I$ a [13] $end
$var wire 1 J$ a [12] $end
$var wire 1 K$ a [11] $end
$var wire 1 L$ a [10] $end
$var wire 1 M$ a [9] $end
$var wire 1 N$ a [8] $end
$var wire 1 O$ a [7] $end
$var wire 1 P$ a [6] $end
$var wire 1 Q$ a [5] $end
$var wire 1 R$ a [4] $end
$var wire 1 S$ a [3] $end
$var wire 1 T$ a [2] $end
$var wire 1 U$ a [1] $end
$var wire 1 V$ a [0] $end
$upscope $end
$upscope $end
$enddefinitions $end
#0
$dumpvars
b1010 !
b10 "
0#
0$
1%
0E
0D
0C
0B
0A
0@
0?
0>
0=
0<
0;
0:
09
08
07
06
05
04
03
02
01
00
0/
0.
0-
0,
0+
0*
0)
0(
0'
0&
0e
0d
0c
0b
0a
0`
0_
0^
0]
0\
0[
0Z
0Y
0X
0W
0V
0U
0T
0S
0R
0Q
0P
0O
0N
0M
0L
0K
0J
0I
0H
0G
0F
0k
0j
0i
0h
0g
0f
0l
xm
0n
1o
xp
1q
1r
1s
1t
0u
0v
1w
0x
0y
0z
0{
0|
0}
1~
1!!
0"!
0#!
0$!
0%!
0&!
0'!
1(!
0)!
0*!
0+!
0,!
0-!
0.!
0/!
10!
11!
12!
03!
04!
05!
06!
07!
08!
09!
0:!
0;!
0<!
0=!
1>!
0?!
0@!
1A!
0B!
0C!
1D!
0E!
1F!
0G!
0H!
1I!
1J!
1K!
1L!
0M!
0N!
1O!
1P!
0Q!
0R!
0S!
0T!
1U!
1V!
0W!
1X!
0Y!
1Z!
1[!
1\!
0]!
1^!
0_!
1`!
1a!
0b!
0c!
0d!
0e!
0f!
1g!
1h!
0i!
1j!
0k!
1l!
1m!
1n!
0o!
1p!
0q!
1r!
1s!
1t!
0u!
0v!
0w!
0x!
1y!
1z!
0{!
1|!
0}!
1~!
1!"
1""
0#"
1$"
0%"
1&"
1'"
0("
0)"
0*"
0+"
0,"
1-"
1."
0/"
10"
01"
12"
13"
14"
05"
16"
07"
18"
19"
1:"
0;"
0<"
0="
0>"
1?"
1@"
0A"
1B"
0C"
1D"
1E"
1F"
0G"
1H"
0I"
1J"
1K"
0L"
0M"
1N"
1O"
0P"
1Q"
0R"
0S"
0T"
0U"
0V"
0W"
0X"
0Y"
0Z"
0["
0\"
0]"
0^"
0_"
0`"
0a"
0b"
0c"
0d"
0e"
0f"
0g"
0h"
0i"
0j"
0k"
0l"
0m"
0n"
0o"
0p"
0q"
0r"
0s"
0t"
0u"
0v"
0w"
0x"
0y"
0z"
0{"
0|"
0}"
0~"
0!#
0"#
0##
0$#
0%#
0&#
0'#
0(#
0)#
0*#
0+#
0,#
0-#
0.#
0/#
00#
01#
02#
03#
04#
0T#
1S#
0R#
1Q#
0P#
0O#
0N#
0M#
0L#
0K#
0J#
0I#
0H#
0G#
0F#
0E#
0D#
0C#
0B#
0A#
0@#
0?#
0>#
0=#
0<#
0;#
0:#
09#
08#
07#
06#
05#
0t#
1s#
0r#
0q#
0p#
0o#
0n#
0m#
0l#
0k#
0j#
0i#
0h#
0g#
0f#
0e#
0d#
0c#
0b#
0a#
0`#
0_#
0^#
0]#
0\#
0[#
0Z#
0Y#
0X#
0W#
0V#
0U#
06$
05$
04$
03$
02$
01$
00$
0/$
0.$
0-$
0,$
0+$
0*$
0)$
0($
0'$
0&$
0%$
0$$
0#$
0"$
0!$
0~#
0}#
0|#
0{#
0z#
0y#
0x#
0w#
0v#
0u#
0V$
0U$
0T$
0S$
0R$
0Q$
0P$
0O$
0N$
0M$
0L$
0K$
0J$
0I$
0H$
0G$
0F$
0E$
0D$
0C$
0B$
0A$
0@$
0?$
0>$
0=$
0<$
0;$
0:$
09$
08$
07$
$end
#1000
1#
1u
0m
1S$
1U$
13!
#2000
0#
0u
1m
#3000
1#
1u
0m
15!
14!
03!
1v
#4000
0#
0u
1m
#5000
1#
1u
0m
1R$
0S$
1T$
0U$
1V$
1u#
1v#
1w#
1x#
1y#
1z#
1{#
1|#
1}#
1~#
1!$
1"$
1#$
1$$
1%$
1&$
1'$
1($
1)$
1*$
1+$
1,$
1-$
1.$
1/$
10$
11$
12$
13$
14$
15$
1y
0Q"
1M"
1>"
1="
1<"
1;"
1,"
1+"
1*"
1)"
1x!
1w!
1v!
1u!
1f!
1e!
1d!
1c!
1T!
1S!
1R!
1Q!
1B!
0A!
1@!
1?!
0>!
1=!
1<!
1;!
1:!
19!
18!
17!
0O"
0N"
1L"
0K"
0J"
0H"
1G"
0E"
0D"
0B"
1A"
0?"
0:"
09"
17"
06"
04"
03"
11"
00"
0."
0-"
1("
0'"
0&"
0$"
1#"
0!"
0~!
0|!
1{!
0y!
0t!
0s!
1q!
0p!
0n!
0m!
1k!
0j!
0h!
0g!
1b!
0a!
0`!
0^!
1]!
0[!
0Z!
0X!
1W!
0U!
0P!
0O!
1N!
1M!
0L!
0K!
0J!
0I!
1H!
0F!
01!
1{
1z
0w
1k
1O"
0A"
1."
0{!
1h!
0W!
1E!
1G!
1J!
1I!
02!
1|
1D"
01"
1~!
0k!
1Z!
0J!
0I!
0M!
1L!
0G"
14"
0#"
1n!
0]!
1M!
0L!
1P!
1O!
1J"
07"
1&"
0q!
1`!
1^!
0P!
0O!
1[!
1X!
1U!
0^!
0[!
0X!
0U!
#6000
0#
0u
1m
#7000
1#
1u
0m
1Q$
0R$
1S$
0T$
1U$
0V$
0u#
0v#
0w#
0x#
0y#
0z#
0{#
0|#
0}#
0~#
0!$
0"$
0#$
0$$
0%$
0&$
0'$
0($
0)$
0*$
0+$
0,$
0-$
0.$
0/$
00$
01$
02$
03$
04$
05$
1}
0y
1Q"
0M"
0>"
0="
0<"
0;"
0,"
0+"
0*"
0)"
0x!
0w!
0v!
0u!
0f!
0e!
0d!
0c!
0T!
0S!
0R!
0Q!
0B!
1A!
0@!
0?!
1>!
0=!
0<!
0;!
0:!
09!
08!
07!
1P"
1N"
0L"
1K"
1I"
1H"
0F"
1E"
1C"
1B"
0@"
1?"
1:"
19"
08"
16"
15"
13"
02"
10"
1/"
1-"
0("
1'"
1%"
1$"
0""
1!"
1}!
1|!
0z!
1y!
1t!
1s!
0r!
1p!
1o!
1m!
0l!
1j!
1i!
1g!
0b!
1a!
1_!
1^!
0\!
1[!
1Y!
1X!
0V!
1U!
1P!
1O!
0N!
0M!
1L!
1K!
1J!
1I!
0H!
0G!
1F!
0!!
0~
0|
0{
0z
1w
1j
0k
0P"
1@"
0/"
1z!
0i!
1V!
0E!
0F!
1"!
1!!
1~
1|
0C"
12"
0}!
1l!
0Y!
1F!
0"!
1F"
05"
1""
0o!
1\!
0I"
18"
0%"
1r!
0_!
#8000
0#
0u
1m
#9000
1#
1u
0m
1P$
0Q$
1R$
0S$
1T$
0U$
1V$
1u#
1v#
1w#
1x#
1y#
1z#
1{#
1|#
1}#
1~#
1!$
1"$
1#$
1$$
1%$
1&$
1'$
1($
1)$
1*$
1+$
1,$
1-$
1.$
1/$
10$
11$
12$
13$
14$
15$
1y
0Q"
1M"
1>"
1="
1<"
1;"
1,"
1+"
1*"
1)"
1x!
1w!
1v!
1u!
1f!
1e!
1d!
1c!
1T!
1S!
1R!
1Q!
1B!
0A!
1@!
1?!
0>!
1=!
1<!
1;!
1:!
19!
18!
17!
0O"
0N"
1L"
0K"
0J"
0H"
1G"
0E"
0D"
0B"
1A"
0?"
0:"
09"
17"
06"
04"
03"
11"
00"
0."
0-"
1("
0'"
0&"
0$"
1#"
0!"
0~!
0|!
1{!
0y!
0t!
0s!
1q!
0p!
0n!
0m!
1k!
0j!
0h!
0g!
1b!
0a!
0`!
0^!
1]!
0[!
0Z!
0X!
1W!
0U!
0P!
0O!
1N!
1M!
0L!
0K!
0J!
0I!
1H!
0F!
1{
1z
0w
1k
1O"
0A"
1."
0{!
1h!
0W!
1E!
1G!
1J!
1I!
0!!
0~
0|
1D"
01"
1~!
0k!
1Z!
0J!
0I!
0M!
1L!
1"!
0G"
14"
0#"
1n!
0]!
1M!
0L!
1P!
1O!
1J"
07"
1&"
0q!
1`!
1^!
0P!
0O!
1[!
1X!
1U!
0^!
0[!
0X!
0U!
#10000
0#
0u
1m
#11000
1#
1u
0m
1O$
0P$
1Q$
0R$
1S$
0T$
1U$
0V$
0u#
0v#
0w#
0x#
0y#
0z#
0{#
0|#
0}#
0~#
0!$
0"$
0#$
0$$
0%$
0&$
0'$
0($
0)$
0*$
0+$
0,$
0-$
0.$
0/$
00$
01$
02$
03$
04$
05$
1#!
0}
0y
1Q"
0M"
0>"
0="
0<"
0;"
0,"
0+"
0*"
0)"
0x!
0w!
0v!
0u!
0f!
0e!
0d!
0c!
0T!
0S!
0R!
0Q!
0B!
1A!
0@!
0?!
1>!
0=!
0<!
0;!
0:!
09!
08!
07!
1P"
1N"
0L"
1K"
1I"
1H"
0F"
1E"
1C"
1B"
0@"
1?"
1:"
19"
08"
16"
15"
13"
02"
10"
1/"
1-"
0("
1'"
1%"
1$"
0""
1!"
1}!
1|!
0z!
1y!
1t!
1s!
0r!
1p!
1o!
1m!
0l!
1j!
1i!
1g!
0b!
1a!
1_!
1^!
0\!
1[!
1Y!
1X!
0V!
1U!
1P!
1O!
0N!
0M!
1L!
1K!
1J!
1I!
0H!
0G!
1F!
1%!
1$!
0"!
1!!
1~
1|
0{
0z
1w
1i
0j
0k
0P"
1@"
0/"
1z!
0i!
1V!
0E!
0F!
1&!
0%!
0$!
1"!
0|
0C"
12"
0}!
1l!
0Y!
1F!
0&!
1F"
05"
1""
0o!
1\!
0I"
18"
0%"
1r!
0_!
#12000
0#
0u
1m
#13000
1#
1u
0m
1N$
0O$
1P$
0Q$
1R$
0S$
1T$
0U$
1V$
1u#
1v#
1w#
1x#
1y#
1z#
1{#
1|#
1}#
1~#
1!$
1"$
1#$
1$$
1%$
1&$
1'$
1($
1)$
1*$
1+$
1,$
1-$
1.$
1/$
10$
11$
12$
13$
14$
15$
1y
0Q"
1M"
1>"
1="
1<"
1;"
1,"
1+"
1*"
1)"
1x!
1w!
1v!
1u!
1f!
1e!
1d!
1c!
1T!
1S!
1R!
1Q!
1B!
0A!
1@!
1?!
0>!
1=!
1<!
1;!
1:!
19!
18!
17!
0O"
0N"
1L"
0K"
0J"
0H"
1G"
0E"
0D"
0B"
1A"
0?"
0:"
09"
17"
06"
04"
03"
11"
00"
0."
0-"
1("
0'"
0&"
0$"
1#"
0!"
0~!
0|!
1{!
0y!
0t!
0s!
1q!
0p!
0n!
0m!
1k!
0j!
0h!
0g!
1b!
0a!
0`!
0^!
1]!
0[!
0Z!
0X!
1W!
0U!
0P!
0O!
1N!
1M!
0L!
0K!
0J!
0I!
1H!
0F!
1{
1z
0w
1k
1O"
0A"
1."
0{!
1h!
0W!
1E!
1G!
1J!
1I!
1|
1D"
01"
1~!
0k!
1Z!
0J!
0I!
0M!
1L!
0G"
14"
0#"
1n!
0]!
1M!
0L!
1P!
1O!
1J"
07"
1&"
0q!
1`!
1^!
0P!
0O!
1[!
1X!
1U!
0^!
0[!
0X!
0U!
#14000
0#
0u
1m
#15000
1#
1u
0m
1M$
0N$
1O$
0P$
1Q$
0R$
1S$
0T$
1U$
0V$
0u#
0v#
0w#
0x#
0y#
0z#
0{#
0|#
0}#
0~#
0!$
0"$
0#$
0$$
0%$
0&$
0'$
0($
0)$
0*$
0+$
0,$
0-$
0.$
0/$
00$
01$
02$
03$
04$
05$
1}
0y
1Q"
0M"
0>"
0="
0<"
0;"
0,"
0+"
0*"
0)"
0x!
0w!
0v!
0u!
0f!
0e!
0d!
0c!
0T!
0S!
0R!
0Q!
0B!
1A!
0@!
0?!
1>!
0=!
0<!
0;!
0:!
09!
08!
07!
1P"
1N"
0L"
1K"
1I"
1H"
0F"
1E"
1C"
1B"
0@"
1?"
1:"
19"
08"
16"
15"
13"
02"
10"
1/"
1-"
0("
1'"
1%"
1$"
0""
1!"
1}!
1|!
0z!
1y!
1t!
1s!
0r!
1p!
1o!
1m!
0l!
1j!
1i!
1g!
0b!
1a!
1_!
1^!
0\!
1[!
1Y!
1X!
0V!
1U!
1P!
1O!
0N!
0M!
1L!
1K!
1J!
1I!
0H!
0G!
1F!
0!!
0~
0|
0{
0z
1w
1j
0k
0P"
1@"
0/"
1z!
0i!
1V!
0E!
0F!
1%!
1$!
0"!
1!!
1~
1|
0C"
12"
0}!
1l!
0Y!
1F!
1&!
0%!
0$!
1"!
1F"
05"
1""
0o!
1\!
0&!
0I"
18"
0%"
1r!
0_!
#16000
0#
0u
1m
