simulation/qsim/uc.msim.vcd
$comment
	File created using the following command:
		vcd file uc.msim.vcd -direction
$end
$date
	Sun May 14 05:08:53 2017
$end
$version
	ModelSim Version 10.1d
$end
$timescale
	1ps
$end
$scope module Div_vlg_vec_tst $end
$var reg 32 ! A [31:0] $end
$var reg 32 " B [31:0] $end
$var reg 1 # clk $end
$var reg 1 $ reset $end
$var wire 1 % HI [31] $end
$var wire 1 & HI [30] $end
$var wire 1 ' HI [29] $end
$var wire 1 ( HI [28] $end
$var wire 1 ) HI [27] $end
$var wire 1 * HI [26] $end
$var wire 1 + HI [25] $end
$var wire 1 , HI [24] $end
$var wire 1 - HI [23] $end
$var wire 1 . HI [22] $end
$var wire 1 / HI [21] $end
$var wire 1 0 HI [20] $end
$var wire 1 1 HI [19] $end
$var wire 1 2 HI [18] $end
$var wire 1 3 HI [17] $end
$var wire 1 4 HI [16] $end
$var wire 1 5 HI [15] $end
$var wire 1 6 HI [14] $end
$var wire 1 7 HI [13] $end
$var wire 1 8 HI [12] $end
$var wire 1 9 HI [11] $end
$var wire 1 : HI [10] $end
$var wire 1 ; HI [9] $end
$var wire 1 < HI [8] $end
$var wire 1 = HI [7] $end
$var wire 1 > HI [6] $end
$var wire 1 ? HI [5] $end
$var wire 1 @ HI [4] $end
$var wire 1 A HI [3] $end
$var wire 1 B HI [2] $end
$var wire 1 C HI [1] $end
$var wire 1 D HI [0] $end
$var wire 1 E LO [31] $end
$var wire 1 F LO [30] $end
$var wire 1 G LO [29] $end
$var wire 1 H LO [28] $end
$var wire 1 I LO [27] $end
$var wire 1 J LO [26] $end
$var wire 1 K LO [25] $end
$var wire 1 L LO [24] $end
$var wire 1 M LO [23] $end
$var wire 1 N LO [22] $end
$var wire 1 O LO [21] $end
$var wire 1 P LO [20] $end
$var wire 1 Q LO [19] $end
$var wire 1 R LO [18] $end
$var wire 1 S LO [17] $end
$var wire 1 T LO [16] $end
$var wire 1 U LO [15] $end
$var wire 1 V LO [14] $end
$var wire 1 W LO [13] $end
$var wire 1 X LO [12] $end
$var wire 1 Y LO [11] $end
$var wire 1 Z LO [10] $end
$var wire 1 [ LO [9] $end
$var wire 1 \ LO [8] $end
$var wire 1 ] LO [7] $end
$var wire 1 ^ LO [6] $end
$var wire 1 _ LO [5] $end
$var wire 1 ` LO [4] $end
$var wire 1 a LO [3] $end
$var wire 1 b LO [2] $end
$var wire 1 c LO [1] $end
$var wire 1 d LO [0] $end
$var wire 1 e counter [5] $end
$var wire 1 f counter [4] $end
$var wire 1 g counter [3] $end
$var wire 1 h counter [2] $end
$var wire 1 i counter [1] $end
$var wire 1 j counter [0] $end
$var wire 1 k div0 $end
$var wire 1 l sampler $end
$scope module i1 $end
$var wire 1 m gnd $end
$var wire 1 n vcc $end
$var wire 1 o unknown $end
$var tri1 1 p devclrn $end
$var tri1 1 q devpor $end
$var tri1 1 r devoe $end
$upscope $end
$upscope $end
$enddefinitions $end
#0
$dumpvars
b110 !
b11 "
0#
0$
xo
1p
1q
1r
0D
0C
0B
0A
0@
0?
0>
0=
0<
0;
0:
09
08
07
06
05
04
03
02
01
00
0/
0.
0-
0,
0+
0*
0)
0(
0'
0&
0%
0d
0c
0b
0a
0`
0_
0^
0]
0\
0[
0Z
0Y
0X
0W
0V
0U
0T
0S
0R
0Q
0P
0O
0N
0M
0L
0K
0J
0I
0H
0G
0F
0E
0j
0i
0h
0g
0f
0e
0k
xl
0m
1n
$end
#1000
1#
0l
#2000
0#
1l
#3000
1#
0l
#4000
0#
1l
#5000
1#
0l
#6000
0#
1l
#7000
1#
0l
#8000
0#
1l
#9000
1#
0l
#10000
0#
1l
#11000
1#
0l
#12000
0#
1l
#13000
1#
0l
#14000
0#
1l
#15000
1#
0l
#16000
0#
1l
#17000
1#
0l
#18000
0#
1l
#19000
1#
0l
#20000
0#
1l
#21000
1#
0l
#22000
0#
1l
#23000
1#
0l
#24000
0#
1l
#25000
1#
0l
#26000
0#
1l
#27000
1#
0l
#28000
0#
1l
#29000
1#
0l
#30000
0#
1l
#31000
1#
0l
#32000
0#
1l
#33000
1#
0l
#34000
0#
1l
#35000
1#
0l
#36000
0#
1l
#37000
1#
0l
#38000
0#
1l
#39000
1#
0l
#40000
0#
1l
#41000
1#
0l
#42000
0#
1l
#43000
1#
0l
#44000
0#
1l
#45000
1#
0l
#46000
0#
1l
#47000
1#
0l
#48000
0#
1l
#49000
1#
0l
#50000
0#
1l
#51000
1#
0l
#52000
0#
1l
#53000
1#
0l
#54000
0#
1l
#55000
1#
0l
#56000
0#
1l
#57000
1#
0l
#58000
0#
1l
#59000
1#
0l
#60000
0#
1l
#61000
1#
0l
#62000
0#
1l
#63000
1#
0l
#64000
0#
1l
#65000
1#
0l
#66000
0#
1l
#67000
1#
0l
#68000
0#
1l
#69000
1#
0l
#70000
0#
1l
#71000
1#
0l
#72000
0#
1l
#73000
1#
0l
#74000
0#
1l
#75000
1#
0l
#76000
0#
1l
#77000
1#
0l
#78000
0#
1l
#79000
1#
0l
#80000
0#
1l
#81000
1#
0l
#82000
0#
1l
#83000
1#
0l
#84000
0#
1l
#85000
1#
0l
#86000
0#
1l
#87000
1#
0l
#88000
0#
1l
#89000
1#
0l
#90000
0#
1l
#91000
1#
0l
#92000
0#
1l
#93000
1#
0l
#94000
0#
1l
#95000
1#
0l
#96000
0#
1l
#97000
1#
0l
#98000
0#
1l
#99000
1#
0l
#100000
0#
1l
#101000
1#
0l
#102000
0#
1l
#103000
1#
0l
#104000
0#
1l
#105000
1#
0l
#106000
0#
1l
#107000
1#
0l
#108000
0#
1l
#109000
1#
0l
#110000
0#
1l
#111000
1#
0l
#112000
0#
1l
#113000
1#
0l
#114000
0#
1l
#115000
1#
0l
#116000
0#
1l
#117000
1#
0l
#118000
0#
1l
#119000
1#
0l
#120000
0#
1l
#121000
1#
0l
#122000
0#
1l
#123000
1#
0l
#124000
0#
1l
#125000
1#
0l
#126000
0#
1l
#127000
1#
0l
#128000
0#
1l
#129000
1#
0l
#130000
0#
1l
#131000
1#
0l
#132000
0#
1l
#133000
1#
0l
#134000
0#
1l
#135000
1#
0l
#136000
0#
1l
#137000
1#
0l
#138000
0#
1l
#139000
1#
0l
#140000
0#
1l
#141000
1#
0l
#142000
0#
1l
#143000
1#
0l
#144000
0#
1l
#145000
1#
0l
#146000
0#
1l
#147000
1#
0l
#148000
0#
1l
#149000
1#
0l
#150000
0#
1l
#151000
1#
0l
#152000
0#
1l
#153000
1#
0l
#154000
0#
1l
#155000
1#
0l
#156000
0#
1l
#157000
1#
0l
#158000
0#
1l
#159000
1#
0l
#160000
0#
1l
#161000
1#
0l
#162000
0#
1l
#163000
1#
0l
#164000
0#
1l
#165000
1#
0l
#166000
0#
1l
#167000
1#
0l
#168000
0#
1l
#169000
1#
0l
#170000
0#
1l
#171000
1#
0l
#172000
0#
1l
#173000
1#
0l
#174000
0#
1l
#175000
1#
0l
#176000
0#
1l
#177000
1#
0l
#178000
0#
1l
#179000
1#
0l
#180000
0#
1l
#181000
1#
0l
#182000
0#
1l
#183000
1#
0l
#184000
0#
1l
#185000
1#
0l
#186000
0#
1l
#187000
1#
0l
#188000
0#
1l
#189000
1#
0l
#190000
0#
1l
#191000
1#
0l
#192000
0#
1l
#193000
1#
0l
#194000
0#
1l
#195000
1#
0l
#196000
0#
1l
#197000
1#
0l
#198000
0#
1l
#199000
1#
0l
#200000
0#
1l
#201000
1#
0l
#202000
0#
1l
#203000
1#
0l
#204000
0#
1l
#205000
1#
0l
#206000
0#
1l
#207000
1#
0l
#208000
0#
1l
#209000
1#
0l
#210000
0#
1l
#211000
1#
0l
#212000
0#
1l
#213000
1#
0l
#214000
0#
1l
#215000
1#
0l
#216000
0#
1l
#217000
1#
0l
#218000
0#
1l
#219000
1#
0l
#220000
0#
1l
#221000
1#
0l
#222000
0#
1l
#223000
1#
0l
#224000
0#
1l
#225000
1#
0l
#226000
0#
1l
#227000
1#
0l
#228000
0#
1l
#229000
1#
0l
#230000
0#
1l
#231000
1#
0l
#232000
0#
1l
#233000
1#
0l
#234000
0#
1l
#235000
1#
0l
#236000
0#
1l
#237000
1#
0l
#238000
0#
1l
#239000
1#
0l
#240000
0#
1l
#241000
1#
0l
#242000
0#
1l
#243000
1#
0l
#244000
0#
1l
#245000
1#
0l
#246000
0#
1l
#247000
1#
0l
#248000
0#
1l
#249000
1#
0l
#250000
0#
1l
#251000
1#
0l
#252000
0#
1l
#253000
1#
0l
#254000
0#
1l
#255000
1#
0l
#256000
0#
1l
#257000
1#
0l
#258000
0#
1l
#259000
1#
0l
#260000
0#
1l
#261000
1#
0l
#262000
0#
1l
#263000
1#
0l
#264000
0#
1l
#265000
1#
0l
#266000
0#
1l
#267000
1#
0l
#268000
0#
1l
#269000
1#
0l
#270000
0#
1l
#271000
1#
0l
#272000
0#
1l
#273000
1#
0l
#274000
0#
1l
#275000
1#
0l
#276000
0#
1l
#277000
1#
0l
#278000
0#
1l
#279000
1#
0l
#280000
0#
1l
#281000
1#
0l
#282000
0#
1l
#283000
1#
0l
#284000
0#
1l
#285000
1#
0l
#286000
0#
1l
#287000
1#
0l
#288000
0#
1l
#289000
1#
0l
#290000
0#
1l
#291000
1#
0l
#292000
0#
1l
#293000
1#
0l
#294000
0#
1l
#295000
1#
0l
#296000
0#
1l
#297000
1#
0l
#298000
0#
1l
#299000
1#
0l
#300000
0#
1l
#301000
1#
0l
#302000
0#
1l
#303000
1#
0l
#304000
0#
1l
#305000
1#
0l
#306000
0#
1l
#307000
1#
0l
#308000
0#
1l
#309000
1#
0l
#310000
0#
1l
#311000
1#
0l
#312000
0#
1l
#313000
1#
0l
#314000
0#
1l
#315000
1#
0l
#316000
0#
1l
#317000
1#
0l
#318000
0#
1l
#319000
1#
0l
#320000
0#
1l
#321000
1#
0l
#322000
0#
1l
#323000
1#
0l
#324000
0#
1l
#325000
1#
0l
#326000
0#
1l
#327000
1#
0l
#328000
0#
1l
#329000
1#
0l
#330000
0#
1l
#331000
1#
0l
#332000
0#
1l
#333000
1#
0l
#334000
0#
1l
#335000
1#
0l
#336000
0#
1l
#337000
1#
0l
#338000
0#
1l
#339000
1#
0l
#340000
0#
1l
#341000
1#
0l
#342000
0#
1l
#343000
1#
0l
#344000
0#
1l
#345000
1#
0l
#346000
0#
1l
#347000
1#
0l
#348000
0#
1l
#349000
1#
0l
#350000
0#
1l
#351000
1#
0l
#352000
0#
1l
#353000
1#
0l
#354000
0#
1l
#355000
1#
0l
#356000
0#
1l
#357000
1#
0l
#358000
0#
1l
#359000
1#
0l
#360000
0#
1l
#361000
1#
0l
#362000
0#
1l
#363000
1#
0l
#364000
0#
1l
#365000
1#
0l
#366000
0#
1l
#367000
1#
0l
#368000
0#
1l
#369000
1#
0l
#370000
0#
1l
#371000
1#
0l
#372000
0#
1l
#373000
1#
0l
#374000
0#
1l
#375000
1#
0l
#376000
0#
1l
#377000
1#
0l
#378000
0#
1l
#379000
1#
0l
#380000
0#
1l
#381000
1#
0l
#382000
0#
1l
#383000
1#
0l
#384000
0#
1l
#385000
1#
0l
#386000
0#
1l
#387000
1#
0l
#388000
0#
1l
#389000
1#
0l
#390000
0#
1l
#391000
1#
0l
#392000
0#
1l
#393000
1#
0l
#394000
0#
1l
#395000
1#
0l
#396000
0#
1l
#397000
1#
0l
#398000
0#
1l
#399000
1#
0l
#400000
0#
1l
#401000
1#
0l
#402000
0#
1l
#403000
1#
0l
#404000
0#
1l
#405000
1#
0l
#406000
0#
1l
#407000
1#
0l
#408000
0#
1l
#409000
1#
0l
#410000
0#
1l
#411000
1#
0l
#412000
0#
1l
#413000
1#
0l
#414000
0#
1l
#415000
1#
0l
#416000
0#
1l
#417000
1#
0l
#418000
0#
1l
#419000
1#
0l
#420000
0#
1l
#421000
1#
0l
#422000
0#
1l
#423000
1#
0l
#424000
0#
1l
#425000
1#
0l
#426000
0#
1l
#427000
1#
0l
#428000
0#
1l
#429000
1#
0l
#430000
0#
1l
#431000
1#
0l
#432000
0#
1l
#433000
1#
0l
#434000
0#
1l
#435000
1#
0l
#436000
0#
1l
#437000
1#
0l
#438000
0#
1l
#439000
1#
0l
#440000
0#
1l
#441000
1#
0l
#442000
0#
1l
#443000
1#
0l
#444000
0#
1l
#445000
1#
0l
#446000
0#
1l
#447000
1#
0l
#448000
0#
1l
#449000
1#
0l
#450000
0#
1l
#451000
1#
0l
#452000
0#
1l
#453000
1#
0l
#454000
0#
1l
#455000
1#
0l
#456000
0#
1l
#457000
1#
0l
#458000
0#
1l
#459000
1#
0l
#460000
0#
1l
#461000
1#
0l
#462000
0#
1l
#463000
1#
0l
#464000
0#
1l
#465000
1#
0l
#466000
0#
1l
#467000
1#
0l
#468000
0#
1l
#469000
1#
0l
#470000
0#
1l
#471000
1#
0l
#472000
0#
1l
#473000
1#
0l
#474000
0#
1l
#475000
1#
0l
#476000
0#
1l
#477000
1#
0l
#478000
0#
1l
#479000
1#
0l
#480000
0#
1l
#481000
1#
0l
#482000
0#
1l
#483000
1#
0l
#484000
0#
1l
#485000
1#
0l
#486000
0#
1l
#487000
1#
0l
#488000
0#
1l
#489000
1#
0l
#490000
0#
1l
#491000
1#
0l
#492000
0#
1l
#493000
1#
0l
#494000
0#
1l
#495000
1#
0l
#496000
0#
1l
#497000
1#
0l
#498000
0#
1l
#499000
1#
0l
#500000
0#
1l
#501000
1#
0l
#502000
0#
1l
#503000
1#
0l
#504000
0#
1l
#505000
1#
0l
#506000
0#
1l
#507000
1#
0l
#508000
0#
1l
#509000
1#
0l
#510000
0#
1l
#511000
1#
0l
#512000
0#
1l
#513000
1#
0l
#514000
0#
1l
#515000
1#
0l
#516000
0#
1l
#517000
1#
0l
#518000
0#
1l
#519000
1#
0l
#520000
0#
1l
#521000
1#
0l
#522000
0#
1l
#523000
1#
0l
#524000
0#
1l
#525000
1#
0l
#526000
0#
1l
#527000
1#
0l
#528000
0#
1l
#529000
1#
0l
#530000
0#
1l
#531000
1#
0l
#532000
0#
1l
#533000
1#
0l
#534000
0#
1l
#535000
1#
0l
#536000
0#
1l
#537000
1#
0l
#538000
0#
1l
#539000
1#
0l
#540000
0#
1l
#541000
1#
0l
#542000
0#
1l
#543000
1#
0l
#544000
0#
1l
#545000
1#
0l
#546000
0#
1l
#547000
1#
0l
#548000
0#
1l
#549000
1#
0l
#550000
0#
1l
#551000
1#
0l
#552000
0#
1l
#553000
1#
0l
#554000
0#
1l
#555000
1#
0l
#556000
0#
1l
#557000
1#
0l
#558000
0#
1l
#559000
1#
0l
#560000
0#
1l
#561000
1#
0l
#562000
0#
1l
#563000
1#
0l
#564000
0#
1l
#565000
1#
0l
#566000
0#
1l
#567000
1#
0l
#568000
0#
1l
#569000
1#
0l
#570000
0#
1l
#571000
1#
0l
#572000
0#
1l
#573000
1#
0l
#574000
0#
1l
#575000
1#
0l
#576000
0#
1l
#577000
1#
0l
#578000
0#
1l
#579000
1#
0l
#580000
0#
1l
#581000
1#
0l
#582000
0#
1l
#583000
1#
0l
#584000
0#
1l
#585000
1#
0l
#586000
0#
1l
#587000
1#
0l
#588000
0#
1l
#589000
1#
0l
#590000
0#
1l
#591000
1#
0l
#592000
0#
1l
#593000
1#
0l
#594000
0#
1l
#595000
1#
0l
#596000
0#
1l
#597000
1#
0l
#598000
0#
1l
#599000
1#
0l
#600000
0#
1l
#601000
1#
0l
#602000
0#
1l
#603000
1#
0l
#604000
0#
1l
#605000
1#
0l
#606000
0#
1l
#607000
1#
0l
#608000
0#
1l
#609000
1#
0l
#610000
0#
1l
#611000
1#
0l
#612000
0#
1l
#613000
1#
0l
#614000
0#
1l
#615000
1#
0l
#616000
0#
1l
#617000
1#
0l
#618000
0#
1l
#619000
1#
0l
#620000
0#
1l
#621000
1#
0l
#622000
0#
1l
#623000
1#
0l
#624000
0#
1l
#625000
1#
0l
#626000
0#
1l
#627000
1#
0l
#628000
0#
1l
#629000
1#
0l
#630000
0#
1l
#631000
1#
0l
#632000
0#
1l
#633000
1#
0l
#634000
0#
1l
#635000
1#
0l
#636000
0#
1l
#637000
1#
0l
#638000
0#
1l
#639000
1#
0l
#640000
0#
1l
#641000
1#
0l
#642000
0#
1l
#643000
1#
0l
#644000
0#
1l
#645000
1#
0l
#646000
0#
1l
#647000
1#
0l
#648000
0#
1l
#649000
1#
0l
#650000
0#
1l
#651000
1#
0l
#652000
0#
1l
#653000
1#
0l
#654000
0#
1l
#655000
1#
0l
#656000
0#
1l
#657000
1#
0l
#658000
0#
1l
#659000
1#
0l
#660000
0#
1l
#661000
1#
0l
#662000
0#
1l
#663000
1#
0l
#664000
0#
1l
#665000
1#
0l
#666000
0#
1l
#667000
1#
0l
#668000
0#
1l
#669000
1#
0l
#670000
0#
1l
#671000
1#
0l
#672000
0#
1l
#673000
1#
0l
#674000
0#
1l
#675000
1#
0l
#676000
0#
1l
#677000
1#
0l
#678000
0#
1l
#679000
1#
0l
#680000
0#
1l
#681000
1#
0l
#682000
0#
1l
#683000
1#
0l
#684000
0#
1l
#685000
1#
0l
#686000
0#
1l
#687000
1#
0l
#688000
0#
1l
#689000
1#
0l
#690000
0#
1l
#691000
1#
0l
#692000
0#
1l
#693000
1#
0l
#694000
0#
1l
#695000
1#
0l
#696000
0#
1l
#697000
1#
0l
#698000
0#
1l
#699000
1#
0l
#700000
0#
1l
#701000
1#
0l
#702000
0#
1l
#703000
1#
0l
#704000
0#
1l
#705000
1#
0l
#706000
0#
1l
#707000
1#
0l
#708000
0#
1l
#709000
1#
0l
#710000
0#
1l
#711000
1#
0l
#712000
0#
1l
#713000
1#
0l
#714000
0#
1l
#715000
1#
0l
#716000
0#
1l
#717000
1#
0l
#718000
0#
1l
#719000
1#
0l
#720000
0#
1l
#721000
1#
0l
#722000
0#
1l
#723000
1#
0l
#724000
0#
1l
#725000
1#
0l
#726000
0#
1l
#727000
1#
0l
#728000
0#
1l
#729000
1#
0l
#730000
0#
1l
#731000
1#
0l
#732000
0#
1l
#733000
1#
0l
#734000
0#
1l
#735000
1#
0l
#736000
0#
1l
#737000
1#
0l
#738000
0#
1l
#739000
1#
0l
#740000
0#
1l
#741000
1#
0l
#742000
0#
1l
#743000
1#
0l
#744000
0#
1l
#745000
1#
0l
#746000
0#
1l
#747000
1#
0l
#748000
0#
1l
#749000
1#
0l
#750000
0#
1l
#751000
1#
0l
#752000
0#
1l
#753000
1#
0l
#754000
0#
1l
#755000
1#
0l
#756000
0#
1l
#757000
1#
0l
#758000
0#
1l
#759000
1#
0l
#760000
0#
1l
#761000
1#
0l
#762000
0#
1l
#763000
1#
0l
#764000
0#
1l
#765000
1#
0l
#766000
0#
1l
#767000
1#
0l
#768000
0#
1l
#769000
1#
0l
#770000
0#
1l
#771000
1#
0l
#772000
0#
1l
#773000
1#
0l
#774000
0#
1l
#775000
1#
0l
#776000
0#
1l
#777000
1#
0l
#778000
0#
1l
#779000
1#
0l
#780000
0#
1l
#781000
1#
0l
#782000
0#
1l
#783000
1#
0l
#784000
0#
1l
#785000
1#
0l
#786000
0#
1l
#787000
1#
0l
#788000
0#
1l
#789000
1#
0l
#790000
0#
1l
#791000
1#
0l
#792000
0#
1l
#793000
1#
0l
#794000
0#
1l
#795000
1#
0l
#796000
0#
1l
#797000
1#
0l
#798000
0#
1l
#799000
1#
0l
#800000
0#
1l
#801000
1#
0l
#802000
0#
1l
#803000
1#
0l
#804000
0#
1l
#805000
1#
0l
#806000
0#
1l
#807000
1#
0l
#808000
0#
1l
#809000
1#
0l
#810000
0#
1l
#811000
1#
0l
#812000
0#
1l
#813000
1#
0l
#814000
0#
1l
#815000
1#
0l
#816000
0#
1l
#817000
1#
0l
#818000
0#
1l
#819000
1#
0l
#820000
0#
1l
#821000
1#
0l
#822000
0#
1l
#823000
1#
0l
#824000
0#
1l
#825000
1#
0l
#826000
0#
1l
#827000
1#
0l
#828000
0#
1l
#829000
1#
0l
#830000
0#
1l
#831000
1#
0l
#832000
0#
1l
#833000
1#
0l
#834000
0#
1l
#835000
1#
0l
#836000
0#
1l
#837000
1#
0l
#838000
0#
1l
#839000
1#
0l
#840000
0#
1l
#841000
1#
0l
#842000
0#
1l
#843000
1#
0l
#844000
0#
1l
#845000
1#
0l
#846000
0#
1l
#847000
1#
0l
#848000
0#
1l
#849000
1#
0l
#850000
0#
1l
#851000
1#
0l
#852000
0#
1l
#853000
1#
0l
#854000
0#
1l
#855000
1#
0l
#856000
0#
1l
#857000
1#
0l
#858000
0#
1l
#859000
1#
0l
#860000
0#
1l
#861000
1#
0l
#862000
0#
1l
#863000
1#
0l
#864000
0#
1l
#865000
1#
0l
#866000
0#
1l
#867000
1#
0l
#868000
0#
1l
#869000
1#
0l
#870000
0#
1l
#871000
1#
0l
#872000
0#
1l
#873000
1#
0l
#874000
0#
1l
#875000
1#
0l
#876000
0#
1l
#877000
1#
0l
#878000
0#
1l
#879000
1#
0l
#880000
0#
1l
#881000
1#
0l
#882000
0#
1l
#883000
1#
0l
#884000
0#
1l
#885000
1#
0l
#886000
0#
1l
#887000
1#
0l
#888000
0#
1l
#889000
1#
0l
#890000
0#
1l
#891000
1#
0l
#892000
0#
1l
#893000
1#
0l
#894000
0#
1l
#895000
1#
0l
#896000
0#
1l
#897000
1#
0l
#898000
0#
1l
#899000
1#
0l
#900000
0#
1l
#901000
1#
0l
#902000
0#
1l
#903000
1#
0l
#904000
0#
1l
#905000
1#
0l
#906000
0#
1l
#907000
1#
0l
#908000
0#
1l
#909000
1#
0l
#910000
0#
1l
#911000
1#
0l
#912000
0#
1l
#913000
1#
0l
#914000
0#
1l
#915000
1#
0l
#916000
0#
1l
#917000
1#
0l
#918000
0#
1l
#919000
1#
0l
#920000
0#
1l
#921000
1#
0l
#922000
0#
1l
#923000
1#
0l
#924000
0#
1l
#925000
1#
0l
#926000
0#
1l
#927000
1#
0l
#928000
0#
1l
#929000
1#
0l
#930000
0#
1l
#931000
1#
0l
#932000
0#
1l
#933000
1#
0l
#934000
0#
1l
#935000
1#
0l
#936000
0#
1l
#937000
1#
0l
#938000
0#
1l
#939000
1#
0l
#940000
0#
1l
#941000
1#
0l
#942000
0#
1l
#943000
1#
0l
#944000
0#
1l
#945000
1#
0l
#946000
0#
1l
#947000
1#
0l
#948000
0#
1l
#949000
1#
0l
#950000
0#
1l
#951000
1#
0l
#952000
0#
1l
#953000
1#
0l
#954000
0#
1l
#955000
1#
0l
#956000
0#
1l
#957000
1#
0l
#958000
0#
1l
#959000
1#
0l
#960000
0#
1l
#961000
1#
0l
#962000
0#
1l
#963000
1#
0l
#964000
0#
1l
#965000
1#
0l
#966000
0#
1l
#967000
1#
0l
#968000
0#
1l
#969000
1#
0l
#970000
0#
1l
#971000
1#
0l
#972000
0#
1l
#973000
1#
0l
#974000
0#
1l
#975000
1#
0l
#976000
0#
1l
#977000
1#
0l
#978000
0#
1l
#979000
1#
0l
#980000
0#
1l
#981000
1#
0l
#982000
0#
1l
#983000
1#
0l
#984000
0#
1l
#985000
1#
0l
#986000
0#
1l
#987000
1#
0l
#988000
0#
1l
#989000
1#
0l
#990000
0#
1l
#991000
1#
0l
#992000
0#
1l
#993000
1#
0l
#994000
0#
1l
#995000
1#
0l
#996000
0#
1l
#997000
1#
0l
#998000
0#
1l
#999000
1#
0l
